{
    "defaultSeverity": "error",
    "extends": [
        "tslint:recommended"
    ],
    "jsRules": {},
    "rules": {
        "max-line-length":{
            "options": [80]
        }
    },
    "rulesDirectory": []
}